…
```r
files <- files %>% drive_reveal(what = 'mime_type')
```

```r
file_types <- files %>%
    group_by(mime_type) %>%
    summarize(count = n(),
              total_size = sum(q_size)) %>%
    arrange( -count)
file_types
```

```
## # A tibble: 66 x 3
##                               mime_type count total_size
##                                   <chr> <int>      <dbl>
##  1                            image/png  1308  248956551
##  2             application/octet-stream  1008 3282496556
##  3                      application/pdf   991 1098422750
##  4   application/vnd.google-apps.folder   789          0
##  5                             text/csv   550  883381352
##  6 application/vnd.google-apps.document   438          0
##  7                           text/plain   367  504657823
##  8             application/x-javascript   277   12832381
##  9                           image/jpeg   189  132630223
## 10                   application/x-gzip   133  542808095
## # ... with 56 more rows
```
…
